%YAML 1.1
%TAG !u! tag:unity3d.com,2011:
--- !u!21 &2100000
Material:
  serializedVersion: 6
  m_ObjectHideFlags: 0
  m_PrefabParentObject: {fileID: 0}
  m_PrefabInternal: {fileID: 0}
  m_Name: SimpleSparksTestMaterial
  m_Shader: {fileID: 4800000, guid: 14edb8823966f5b4b8ec2e72cd360133, type: 3}
  m_ShaderKeywords: TURBULENCE
  m_LightmapFlags: 5
  m_CustomRenderQueue: 3003
  stringTagMap: {}
  m_SavedProperties:
    serializedVersion: 2
    m_TexEnvs:
    - first:
        name: <noninit>
      second:
        m_Texture: {fileID: 0}
        m_Scale: {x: 1, y: 1}
        m_Offset: {x: 0, y: 0}
    - first:
        name: _MainTex
      second:
        m_Texture: {fileID: 10300, guid: 0000000000000000f000000000000000, type: 0}
        m_Scale: {x: 1, y: 1}
        m_Offset: {x: 0, y: 0}
    m_Floats:
    - first:
        name: <noninit>
      second: 0
    - first:
        name: _FadeOut
      second: 16
    - first:
        name: _Size
      second: 0.1
    - first:
        name: _Turbulence
      second: 0
    - first:
        name: _TurbulenceAmplitude0
      second: 5
    - first:
        name: _TurbulenceAmplitude1
      second: 1
    - first:
        name: _TurbulenceFrequency0
      second: 8
    - first:
        name: _TurbulenceFrequency1
      second: 30
    m_Colors:
    - first:
        name: <noninit>
      second: {r: 0, g: 2.0182955, b: 1e-45, a: -6.300028e+33}
    - first:
        name: _TintColor
      second: {r: 1.64, g: 1.2504036, b: 0.6511765, a: 1}
